{
    "address": "Burgwedeler Straße 31, 30916 Isernhagen, Deutschland", 
    "base_rent": null, 
    "broker": {
        "avatar": "https://d1kqugdvkjk42k.cloudfront.net/photos/RF3cid5JnHRZwDycktFvoTAd/avatar/6dGVPKs1FDyac5qmg6zwNsJv/thumb_bill-gates-jpg.jpg", 
        "color": "deeppink", 
        "email": "cannonball.demo.ic+test@gmail.com", 
        "id": 69, 
        "name": "David Mustermann", 
        "old_crm_id": null, 
        "phone": "", 
        "shop": {
            "color": "#377de6", 
            "name": "Propstack GmbH"
        }
    }, 
    "city": "Isernhagen", 
    "description_note": "objektbeschreibung blablabla", 
    "descriptions": {
        "description_note": "objektbeschreibung blablabla", 
        "location_note": "lage lage lage "
    }, 
    "documents": [], 
    "exposee_id": "", 
    "favorites": [], 
    "fields": {
        "building_energy_rating_type": "Bedarfsausweis", 
        "condition": "Erstbezug", 
        "construction_year": 1999, 
        "construction_year_unknown": "translation missing: de.p_labels.false", 
        "energy_certificate_availability": "liegt für das Gebäude vor", 
        "firing_types": "Erdwärme", 
        "heating_type": "Ofenheizung", 
        "number_of_bed_rooms": 8, 
        "thermal_characteristic": "488"
    }, 
    "floor": "EG", 
    "floorplan": null, 
    "floorplans": [], 
    "free_from": "19.2.2018", 
    "furnishings": {
        "auto_lift": null, 
        "balcony": null, 
        "barrier_free": null, 
        "building_permission": null, 
        "built_in_kitchen": null, 
        "cellar": null, 
        "certificate_of_eligibility_needed": null, 
        "crane_runway": null, 
        "demolition": null, 
        "energy_consumption_contains_warm_water": null, 
        "flat_share_suitable": null, 
        "garden": null, 
        "goods_lift": null, 
        "guest_toilet": null, 
        "has_canteen": null, 
        "heating_costs_in_service_charge": null, 
        "high_voltage": null, 
        "kitchen_complete": null, 
        "lift": null, 
        "lodger_flat": null, 
        "monument": null, 
        "price_on_inquiry": null, 
        "ramp": null, 
        "rented": null, 
        "short_term_constructible": null, 
        "summer_residence_practical": null, 
        "terrace": null
    }, 
    "general": {
        "address": "Burgwedeler Straße 31, 30916 Isernhagen, Deutschland", 
        "status": "Verfügbar", 
        "title": "tolles haus ", 
        "unit_id": "sp-td-1234"
    }, 
    "house_number": "31", 
    "id": 4789, 
    "images": [], 
    "links": [], 
    "living_space": 200.0, 
    "location_note": "lage lage lage ", 
    "name": "sp-td-1234", 
    "number_of_rooms": 5.0, 
    "optional_fields": [
        {
            "name": "Objektzustand", 
            "value": "Erstbezug"
        }, 
        {
            "name": "Qualität der Ausstattung", 
            "value": "Luxus"
        }, 
        {
            "name": "Etagenzahl", 
            "value": "4"
        }, 
        {
            "name": "Energieausweistyp", 
            "value": "Bedarfsausweis"
        }, 
        {
            "name": "Energieeffizienzklasse", 
            "value": "A+"
        }, 
        {
            "name": "Wesentlicher Energieträger", 
            "value": "Erdwärme"
        }, 
        {
            "name": "Endenergiebedarf", 
            "value": "488 kWh/(m²*a)"
        }, 
        {
            "name": "Heizungsart", 
            "value": "Ofenheizung"
        }, 
        {
            "name": "Provisionshinweis", 
            "value": "provision hinweis hinweis"
        }, 
        {
            "name": "Garagentyp", 
            "value": "Garagen"
        }, 
        {
            "name": "Bauphase", 
            "value": "Haus fertig gestellt"
        }, 
        {
            "name": "Mieteinnahmen", 
            "value": "5,00 €"
        }, 
        {
            "name": "Haustyp", 
            "value": "Einfamilienhaus"
        }, 
        {
            "name": "Grundstücksfläche", 
            "value": "200.400 m²"
        }, 
        {
            "name": "Garage Miete", 
            "value": "2.999,00 €"
        }, 
        {
            "name": "Nutzfläche", 
            "value": "399 m²"
        }, 
        {
            "name": "Vermietet", 
            "value": "✓"
        }, 
        {
            "name": "Einliegerwohnung", 
            "value": "✓"
        }, 
        {
            "name": "Keller", 
            "value": "✓"
        }, 
        {
            "name": "Barrierefrei", 
            "value": "✓"
        }, 
        {
            "name": "Gäste-WC", 
            "value": "✓"
        }, 
        {
            "name": "Denkmalschutzobjekt", 
            "value": "✓"
        }, 
        {
            "name": "Als Ferienwohnung geeignet", 
            "value": "✓"
        }, 
        {
            "name": "Anzahl Schlafzimmer", 
            "value": 8
        }, 
        {
            "name": "Anzahl Badezimmer", 
            "value": 3
        }, 
        {
            "name": "Anzahl Parkplätze", 
            "value": 2
        }, 
        {
            "name": "Letzte Modernisierung", 
            "value": 1988
        }, 
        {
            "name": "Baujahr", 
            "value": 1999
        }, 
        {
            "name": "Einzugstermin", 
            "value": "19.2.2018"
        }, 
        {
            "name": "Wohnfläche", 
            "value": "200 m²"
        }, 
        {
            "name": "Zimmer", 
            "value": "5"
        }, 
        {
            "name": "Provisionshöhe brutto", 
            "value": "3,22"
        }, 
        {
            "name": "Provision", 
            "value": "✓"
        }
    ], 
    "price": 200000.0, 
    "prices": {
        "courtage": "3,22", 
        "parking_space_price": 2999.0, 
        "price": 200000.0
    }, 
    "project_id": null, 
    "rented": true, 
    "required_fields": [
        {
            "name": "Kaufpreis", 
            "value": "200.000,00 €"
        }, 
        {
            "name": "Wohnfläche", 
            "value": "200 m²"
        }, 
        {
            "name": "Zimmer", 
            "value": "5"
        }, 
        {
            "name": "Provisionshöhe brutto", 
            "value": "3,22"
        }
    ], 
    "short_address": "Burgwedeler Straße 31, 30916 Isernhagen", 
    "status": {
        "color": "#009cde", 
        "id": 176, 
        "name": "Verfügbar"
    }, 
    "street": "Burgwedeler Straße", 
    "sublocality_level_1": "", 
    "sublocality_level_2": null, 
    "title": "tolles haus ", 
    "unit_id": "sp-td-1234", 
    "zip_code": "30916"
}